{
  "x": 1,
  "y": 1,
  "leftClick": true,
  "red": 66,
  "green": 135,
  "blue": 244,
  "pressedRed": 255,
  "pressedGreen": 255,
  "pressedBlue": 255,
  "scale": 1.0,
  "fadeTime": 0.30000001192092896,
  "enabled": true,
  "chroma": false,
  "mouseButtons": true,
  "showCPS": true,
  "showCPSOnButtons": true,
  "showSpacebar": true,
  "fps": false,
  "showSneak": true,
  "keyBackground": true,
  "showWASD": true,
  "literalKeys": false,
  "keyBackgroundOpacity": 50,
  "keyBackgroundRed": 0,
  "keyBackgroundGreen": 0,
  "keyBackgroundBlue": 0,
  "arrowKeys": false,
  "ping": false,
  "custom": []
}